<svg width="24" height="24" viewBox="0 0 24 24" fill="none" xmlns="http://www.w3.org/2000/svg">
<path d="M16.7955 4.92063L10.5156 11.2005C9.92709 11.789 10.1641 12.4439 10.5156 12.7955C10.8672 13.1471 16.7955 19.0797 16.7955 19.0797C17.2342 19.5195 17.2342 20.2316 16.7955 20.6704C16.5761 20.8898 16.2881 21 16.0001 21C15.7121 21 15.4241 20.8898 15.2048 20.6704L7.3299 12.7955C6.89003 12.3568 6.89003 11.6435 7.3299 11.2048L15.2048 3.3299C15.6435 2.89003 16.3556 2.89003 16.7955 3.3299C17.2342 3.76977 17.2342 4.48188 16.7955 4.92063Z" fill="black"/>
</svg>
