<svg width="40" height="40" viewBox="0 0 40 40" fill="none" xmlns="http://www.w3.org/2000/svg">
<path fill-rule="evenodd" clip-rule="evenodd" d="M7 32.1037C7 33.4215 8.05811 34.4898 9.36349 34.4898H30.6365C31.9419 34.4898 33 33.4215 33 32.1037V14.4371H7V32.1037ZM25.9093 12.6676C24.9304 12.6676 24.1364 11.875 24.1364 10.8981C24.1364 10.2436 24.4934 9.67338 25.023 9.36755V10.8981C25.023 11.3865 25.4194 11.783 25.9093 11.783C26.3983 11.783 26.7953 11.3865 26.7953 10.8981V9.36755C27.3249 9.67338 27.6818 10.2436 27.6818 10.8981C27.6818 11.875 26.8886 12.6676 25.9093 12.6676ZM14.0907 12.6676C13.1119 12.6676 12.3182 11.875 12.3182 10.8981C12.3182 10.2436 12.6754 9.67338 13.2047 9.36755V10.8981C13.2047 11.3865 13.6012 11.783 14.0907 11.783C14.5803 11.783 14.9773 11.3865 14.9773 10.8981V9.36755C15.5066 9.67338 15.8636 10.2436 15.8636 10.8981C15.8636 11.875 15.0701 12.6676 14.0907 12.6676ZM30.6365 8.53901H26.7953V5.88462C26.7953 5.39617 26.3983 5 25.9093 5C25.4194 5 25.023 5.39617 25.023 5.88462V8.53901H14.9773V5.88462C14.9773 5.39617 14.5803 5 14.0907 5C13.6012 5 13.2047 5.39617 13.2047 5.88462V8.53901H9.36349C8.05811 8.53901 7 9.60735 7 10.9254V13.2571H33V10.9254C33 9.60735 31.9419 8.53901 30.6365 8.53901ZM9 18H15V23H9V18ZM15 25H9V30H15V25ZM17 18H23V23H17V18ZM23 25H17V30H23V25ZM25 18H31V23H25V18ZM31 25H25V30H31V25Z" fill="black"/>
</svg>
