<svg width="32" height="32" viewBox="0 0 32 32" fill="none" xmlns="http://www.w3.org/2000/svg">
<mask id="mask0" mask-type="alpha" maskUnits="userSpaceOnUse" x="3" y="5" width="26" height="22">
<path fill-rule="evenodd" clip-rule="evenodd" d="M4.48003 17.4398L24.4299 17.4398L17.6549 24.2147C17.1557 24.7139 17.1557 25.5242 17.6549 26.0246C18.1554 26.5251 18.9656 26.5251 19.4648 26.0246L28.4247 17.0648C28.9252 16.5656 28.9252 15.754 28.4247 15.2549L19.4648 6.29497C19.2152 6.04537 18.8875 5.91993 18.5599 5.91993C18.2322 5.91993 17.9045 6.04537 17.6549 6.29497C17.1557 6.79416 17.1557 7.60439 17.6549 8.10487L24.4299 14.8798L4.48003 14.8798C3.77348 14.8798 3.20005 15.4533 3.20005 16.1598C3.20005 16.8664 3.77348 17.4398 4.48003 17.4398Z" fill="black"/>
</mask>
<g mask="url(#mask0)">
<rect x="31.2" y="32" width="32" height="32" transform="rotate(-180 31.2 32)" fill="black"/>
</g>
</svg>
