<svg width="50" height="50" viewBox="0 0 50 50" fill="none" xmlns="http://www.w3.org/2000/svg">
<path fill-rule="evenodd" clip-rule="evenodd" d="M13.2667 29.5333C15.6231 29.5333 17.5333 27.6231 17.5333 25.2667C17.5333 22.9103 15.6231 21 13.2667 21C10.9103 21 9 22.9103 9 25.2667C9 27.6231 10.9103 29.5333 13.2667 29.5333ZM25 29.5333C27.3564 29.5333 29.2667 27.6231 29.2667 25.2667C29.2667 22.9103 27.3564 21 25 21C22.6436 21 20.7333 22.9103 20.7333 25.2667C20.7333 27.6231 22.6436 29.5333 25 29.5333ZM41 25.2667C41 27.6231 39.0897 29.5333 36.7333 29.5333C34.3769 29.5333 32.4667 27.6231 32.4667 25.2667C32.4667 22.9103 34.3769 21 36.7333 21C39.0897 21 41 22.9103 41 25.2667Z" fill="black"/>
</svg>
