<svg width="40" height="40" viewBox="0 0 40 40" fill="none" xmlns="http://www.w3.org/2000/svg">
<mask id="mask0" mask-type="alpha" maskUnits="userSpaceOnUse" x="4" y="7" width="32" height="26">
<path fill-rule="evenodd" clip-rule="evenodd" d="M6 7C4.89543 7 4 7.89543 4 9V25.2105C4 26.3151 4.89543 27.2105 6 27.2105H11.68L10.5715 31.8781C10.5242 32.0769 10.7703 32.2102 10.911 32.0621L15.52 27.2105H34C35.1046 27.2105 36 26.3151 36 25.2105V9C36 7.89543 35.1046 7 34 7H6ZM9.53333 12.3333C9.42288 12.3333 9.33333 12.4229 9.33333 12.5333V13.7333C9.33333 13.8438 9.42288 13.9333 9.53333 13.9333H19.8C19.9105 13.9333 20 13.8438 20 13.7333V12.5333C20 12.4229 19.9105 12.3333 19.8 12.3333H9.53333ZM9.33333 16.8C9.33333 16.6895 9.42288 16.6 9.53333 16.6H30.4667C30.5771 16.6 30.6667 16.6895 30.6667 16.8V18C30.6667 18.1105 30.5771 18.2 30.4667 18.2H9.53333C9.42288 18.2 9.33333 18.1105 9.33333 18V16.8ZM9.53333 20.8667C9.42288 20.8667 9.33333 20.9562 9.33333 21.0667V22.2667C9.33333 22.3771 9.42288 22.4667 9.53333 22.4667H25.1333C25.2438 22.4667 25.3333 22.3771 25.3333 22.2667V21.0667C25.3333 20.9562 25.2438 20.8667 25.1333 20.8667H9.53333Z" fill="black"/>
</mask>
<g mask="url(#mask0)">
<rect width="40" height="40" fill="black"/>
</g>
</svg>
