<svg width="40" height="40" viewBox="0 0 40 40" fill="none" xmlns="http://www.w3.org/2000/svg">
<path fill-rule="evenodd" clip-rule="evenodd" d="M23.5385 15.3829C23.6451 15.4895 23.7784 15.4895 23.885 15.3829L29.9353 9.33265C30.0419 9.22604 30.0419 9.09278 29.9353 8.98616L29.0291 8.07996C28.9225 7.97335 28.7892 7.97335 28.6826 8.07996L22.6057 14.1302C22.4991 14.2368 22.4991 14.3701 22.6057 14.4767L23.5385 15.3829ZM15.3829 23.5391L14.4767 22.6329C14.3701 22.5262 14.2102 22.5262 14.1302 22.6329L8.07996 28.6564C7.97335 28.7631 7.97335 28.8963 8.07996 29.0029L8.98616 29.9091C9.09278 30.0158 9.22604 30.0158 9.33265 29.9091L15.3829 23.8589C15.4895 23.7789 15.4895 23.619 15.3829 23.5391ZM30.7351 9.89238C30.8684 9.75911 31.5613 10.8785 31.8279 11.9447C32.7341 15.8094 29.9888 20.6336 25.3245 25.3245C20.6336 30.0155 15.8094 32.7341 11.9447 31.8279C10.8785 31.5347 9.75911 30.8417 9.89238 30.7351C10.0302 30.6203 14.4424 26.1915 15.7798 24.8489C15.9946 24.6334 16.13 24.4974 16.1559 24.4716C16.263 24.3466 16.5616 25.0112 16.8512 25.6559C16.9938 25.9735 17.1343 26.2861 17.2486 26.4972C17.5951 27.1369 20.6869 24.0985 22.3927 22.3927C24.0985 20.6869 27.1369 17.5951 26.4972 17.2486C26.2863 17.1344 25.9739 16.9969 25.6566 16.8573C25.0117 16.5736 24.3466 16.2809 24.4716 16.1559C24.5083 16.1192 24.6767 15.9521 24.9361 15.6946C26.3722 14.269 30.5996 10.073 30.7351 9.89238Z" fill="black"/>
</svg>
