<svg width="40" height="40" viewBox="0 0 40 40" fill="none" xmlns="http://www.w3.org/2000/svg">
<path d="M8.8 18.6C10.565 18.6 12 17.165 12 15.4C12 13.635 10.565 12.2 8.8 12.2C7.035 12.2 5.6 13.635 5.6 15.4C5.6 17.165 7.035 18.6 8.8 18.6ZM31.2 18.6C32.965 18.6 34.4 17.165 34.4 15.4C34.4 13.635 32.965 12.2 31.2 12.2C29.435 12.2 28 13.635 28 15.4C28 17.165 29.435 18.6 31.2 18.6ZM32.8 20.2H29.6C28.72 20.2 27.925 20.555 27.345 21.13C29.36 22.235 30.79 24.23 31.1 26.6H34.4C35.285 26.6 36 25.885 36 25V23.4C36 21.635 34.565 20.2 32.8 20.2ZM20 20.2C23.095 20.2 25.6 17.695 25.6 14.6C25.6 11.505 23.095 9 20 9C16.905 9 14.4 11.505 14.4 14.6C14.4 17.695 16.905 20.2 20 20.2ZM23.84 21.8H23.425C22.385 22.3 21.23 22.6 20 22.6C18.77 22.6 17.62 22.3 16.575 21.8H16.16C12.98 21.8 10.4 24.38 10.4 27.56V29C10.4 30.325 11.475 31.4 12.8 31.4H27.2C28.525 31.4 29.6 30.325 29.6 29V27.56C29.6 24.38 27.02 21.8 23.84 21.8ZM12.655 21.13C12.075 20.555 11.28 20.2 10.4 20.2H7.2C5.435 20.2 4 21.635 4 23.4V25C4 25.885 4.715 26.6 5.6 26.6H8.895C9.21 24.23 10.64 22.235 12.655 21.13Z" fill="black"/>
</svg>
