<svg width="40" height="40" viewBox="0 0 40 40" fill="none" xmlns="http://www.w3.org/2000/svg">
<path fill-rule="evenodd" clip-rule="evenodd" d="M2 18C2 16.8954 2.89543 16 4 16H24.8509C25.9555 16 26.8509 16.8954 26.8509 18V30.0825C26.8509 31.1871 25.9555 32.0825 24.8509 32.0825H4C2.89543 32.0825 2 31.1871 2 30.0825V18ZM7.1031 22.9695C5.60495 22.9695 4.4405 21.9145 4.4405 20.5571C4.4405 19.1997 5.60495 18.1447 7.1031 18.1447C8.60126 18.1447 9.76571 19.1997 9.76571 20.5571C9.76571 21.9145 8.60126 22.9695 7.1031 22.9695ZM15.769 22.8454C15.0069 22.155 13.8454 22.155 13.0833 22.8454L9.39411 26.1879C8.03816 27.4164 8.90725 29.67 10.737 29.67H18.1153C19.945 29.67 20.8141 27.4164 19.4581 26.1879L15.769 22.8454Z" fill="black"/>
<path d="M37 12H31V6C31 5.4 30.6 5 30 5C29.4 5 29 5.4 29 6V12H23C22.4 12 22 12.4 22 13C22 13.6 22.4 14 23 14H29V20C29 20.6 29.4 21 30 21C30.6 21 31 20.6 31 20V14H37C37.6 14 38 13.6 38 13C38 12.4 37.6 12 37 12Z" fill="black"/>
</svg>
