<svg width="40" height="40" viewBox="0 0 40 40" fill="none" xmlns="http://www.w3.org/2000/svg">
<mask id="mask0" mask-type="alpha" maskUnits="userSpaceOnUse" x="4" y="4" width="32" height="33">
<path fill-rule="evenodd" clip-rule="evenodd" d="M32.7076 4.23398C32.2845 3.87898 31.6538 3.93416 31.2988 4.35724L28.1201 8.14543L31.7635 11.2026L34.9422 7.41441C35.2972 6.99133 35.242 6.36058 34.8189 6.00557L32.7076 4.23398ZM31.3001 11.7974L27.6567 8.74027L13.8994 25.1355L17.5428 28.1927L31.3001 11.7974ZM17.2044 28.8255L13.561 25.7683L11.7173 31.3761C11.661 31.5476 11.8427 31.7002 12.0019 31.6148L17.2044 28.8255ZM6 7.48682H25.3111L23.6329 9.48682H6L6 34.0235H30.5367V16.4366L32.5367 14.374V34.0235C32.5367 35.1281 31.6412 36.0235 30.5367 36.0235H6C4.89543 36.0235 4 35.1281 4 34.0235V9.48682C4 8.38225 4.89543 7.48682 6 7.48682Z" fill="black"/>
</mask>
<g mask="url(#mask0)">
<rect width="40" height="40" fill="black"/>
</g>
</svg>
