<svg width="40" height="40" viewBox="0 0 40 40" fill="none" xmlns="http://www.w3.org/2000/svg">
<path d="M28.4142 7.41445L17.25 18.5787C16.2037 19.625 16.625 20.7892 17.25 21.4142C17.875 22.0392 28.4142 32.5861 28.4142 32.5861C29.1942 33.368 29.1942 34.634 28.4142 35.414C28.0242 35.804 27.5122 36 27.0002 36C26.4883 36 25.9763 35.804 25.5863 35.414L11.5865 21.4142C10.8045 20.6342 10.8045 19.3663 11.5865 18.5863L25.5863 4.58649C26.3663 3.8045 27.6322 3.8045 28.4142 4.58649C29.1942 5.36848 29.1942 6.63446 28.4142 7.41445Z" fill="black"/>
</svg>
