<svg width="40" height="40" viewBox="0 0 40 40" fill="none" xmlns="http://www.w3.org/2000/svg">
<path fill-rule="evenodd" clip-rule="evenodd" d="M20.0335 4L36.0006 19.6051L33.6056 21.9459L20.1283 8.69798L6.39507 22.1198L4 19.779L17.7401 6.35046L17.7302 6.34077L20.0335 4ZM20.1291 9.80038L8.74191 20.9294V35.9987H16.6451V24.9654H23.4194V35.9987H31.3229V20.8036L20.1291 9.80038ZM13.2573 5.10379H8.74107V14.2154L13.2573 9.80165V5.10379Z" fill="black"/>
</svg>
