<svg width="40" height="40" viewBox="0 0 40 40" fill="none" xmlns="http://www.w3.org/2000/svg">
<path fill-rule="evenodd" clip-rule="evenodd" d="M18.4729 4C17.9206 4 17.4729 4.44772 17.4729 5V7.62165C15.8606 7.94909 14.3597 8.58365 13.0342 9.46161L11.1799 7.60727C10.7893 7.21675 10.1562 7.21675 9.76564 7.60727L7.60711 9.76581C7.21658 10.1563 7.21658 10.7895 7.60711 11.18L9.46148 13.0344C8.5835 14.36 7.94895 15.8609 7.62155 17.4734H5C4.44772 17.4734 4 17.9211 4 18.4734V21.526C4 22.0783 4.44772 22.526 5 22.526H7.6213C7.9486 24.1388 8.58315 25.64 9.46121 26.9659L7.60677 28.8203C7.21625 29.2108 7.21625 29.844 7.60677 30.2345L9.76531 32.3931C10.1558 32.7836 10.789 32.7836 11.1795 32.3931L13.0338 30.5388C14.3594 31.4169 15.8604 32.0515 17.4729 32.379V35C17.4729 35.5523 17.9206 36 18.4729 36H21.5255C22.0778 36 22.5255 35.5523 22.5255 35V32.3795C24.1387 32.0522 25.6402 31.4175 26.9663 30.5392L28.8203 32.3932C29.2108 32.7838 29.844 32.7838 30.2345 32.3932L32.3931 30.2347C32.7836 29.8442 32.7836 29.211 32.3931 28.8205L30.5391 26.9665C31.4173 25.6405 32.052 24.139 32.3794 22.526H35C35.5523 22.526 36 22.0783 36 21.526V18.4734C36 17.9211 35.5523 17.4734 35 17.4734H32.3791C32.0517 15.8607 31.417 14.3596 30.5388 13.0338L32.3927 11.1799C32.7833 10.7893 32.7832 10.1562 32.3927 9.76564L30.2342 7.60711C29.8437 7.21658 29.2105 7.21658 28.82 7.60711L26.9659 9.46121C25.6399 8.58306 24.1385 7.94847 22.5255 7.6212V5C22.5255 4.44772 22.0778 4 21.5255 4H18.4729ZM20.001 25.8947C23.2566 25.8947 25.8957 23.2555 25.8957 19.9999C25.8957 16.7444 23.2566 14.1052 20.001 14.1052C16.7454 14.1052 14.1062 16.7444 14.1062 19.9999C14.1062 23.2555 16.7454 25.8947 20.001 25.8947Z" fill="black"/>
</svg>
