<svg width="40" height="40" viewBox="0 0 40 40" fill="none" xmlns="http://www.w3.org/2000/svg">
<g clip-path="url(#clip0)">
<path fill-rule="evenodd" clip-rule="evenodd" d="M19.6274 35.627C28.464 35.627 35.6274 28.4635 35.6274 19.627C35.6274 10.7904 28.464 3.62695 19.6274 3.62695C10.7909 3.62695 3.62742 10.7904 3.62742 19.627C3.62742 28.4635 10.7909 35.627 19.6274 35.627ZM11.0648 19.8701C11.0648 19.546 11.3275 19.2833 11.6516 19.2833L19.2907 19.2839L19.2965 11.6742C19.2968 11.3502 19.5597 11.0873 19.8837 11.087C20.2078 11.0868 20.4702 11.3493 20.47 11.6733L20.4642 19.2839L28.0817 19.2844C28.4057 19.2845 28.6685 19.5472 28.6685 19.8713C28.6685 20.1953 28.4058 20.458 28.0817 20.458L20.4633 20.4575L20.4575 28.1019C20.4572 28.426 20.1943 28.6889 19.8703 28.6891C19.5462 28.6894 19.2838 28.4269 19.284 28.1028L19.2898 20.4574L11.6517 20.4569C11.3276 20.4569 11.0649 20.1942 11.0648 19.8701Z" fill="black"/>
</g>
<defs>
<clipPath id="clip0">
<path d="M0 0H40V40H0V0Z" fill="white"/>
</clipPath>
</defs>
</svg>
