<svg width="40" height="40" viewBox="0 0 40 40" fill="none" xmlns="http://www.w3.org/2000/svg">
<path d="M30 35.25H10C9.30964 35.25 8.75 34.6904 8.75 34V6C8.75 5.30964 9.30964 4.75 10 4.75H26.356L31.25 9.64399V34C31.25 34.6904 30.6904 35.25 30 35.25Z" stroke="black" stroke-width="1.5"/>
<path d="M26.9004 7.54667V5.19898L30.7851 9.04667H28.4004C27.572 9.04667 26.9004 8.37509 26.9004 7.54667Z" fill="white" stroke="black"/>
<circle cx="13.28" cy="14.8796" r="1.28" fill="black"/>
<rect x="15.6582" y="14.3311" width="12.8" height="1.09714" rx="0.548571" fill="black"/>
<circle cx="13.28" cy="20.4802" r="1.28" fill="black"/>
<rect x="15.6582" y="19.9316" width="9.6" height="1.09714" rx="0.548571" fill="black"/>
<circle cx="13.28" cy="26.0798" r="1.28" fill="black"/>
<rect x="15.6582" y="25.5312" width="6.4" height="1.09714" rx="0.548571" fill="black"/>
</svg>
