<svg width="40" height="40" viewBox="0 0 40 40" fill="none" xmlns="http://www.w3.org/2000/svg">
<rect x="5" y="6" width="8" height="8" rx="1" fill="black"/>
<rect x="5" y="16" width="8" height="8" rx="1" fill="black"/>
<rect x="5" y="26" width="8" height="8" rx="1" fill="black"/>
<rect x="15" y="9" width="20" height="2" rx="1" fill="black"/>
<rect x="15" y="19" width="20" height="2" rx="1" fill="black"/>
<rect x="15" y="29" width="20" height="2" rx="1" fill="black"/>
</svg>
